%YAML 1.1
%TAG !u! tag:unity3d.com,2011:
--- !u!1045 &1
EditorBuildSettings:
  m_ObjectHideFlags: 0
  serializedVersion: 2
  m_Scenes:
  - enabled: 1
    path: Assets/Scenes/main.unity
    guid: eb9bcde922b50b5489572334a607fb3f
  - enabled: 1
    path: Assets/Scenes/house_inside.unity
    guid: 689dc7eaaaf78c64fa841d637563b7a8
