%YAML 1.1
%TAG !u! tag:unity3d.com,2011:
--- !u!114 &11400000
MonoBehaviour:
  m_ObjectHideFlags: 0
  m_PrefabParentObject: {fileID: 0}
  m_PrefabInternal: {fileID: 0}
  m_GameObject: {fileID: 0}
  m_Enabled: 1
  m_EditorHideFlags: 0
  m_Script: {fileID: 11500000, guid: a3d388d55724ccf47b815c8dbd9ef0fc, type: 3}
  m_Name: MinMax 2
  m_EditorClassIdentifier: 
  maxDepth: 5
  maxIterations: 1000000
  maxMoveTime: 3
  checkGameStatus: 1
  searchNode: 2
