%YAML 1.1
%TAG !u! tag:unity3d.com,2011:
--- !u!1045 &1
EditorBuildSettings:
  m_ObjectHideFlags: 0
  serializedVersion: 2
  m_Scenes:
  - enabled: 1
    path: Assets/Levels/Title Menu.unity
    guid: ca1333442bc82f246bad344e02836d0b
  - enabled: 1
    path: Assets/Levels/Level 1.unity
    guid: 63568d808397bb649ae192bea6681fb2
  - enabled: 1
    path: Assets/Levels/Level 2.unity
    guid: 7f03c8c73b2dd554190d8bc27b6e149c
  - enabled: 0
    path: Assets/Levels/Level Select.unity
    guid: 8d882d9460f6caa4daeabbfb692b8cdb
